<?xml version="1.0" encoding="UTF-8"?>
<session version="1.0">
<refactoring comment="Delete resource &apos;P02/src/textSrot.c&apos;" deleteContents="false" description="Delete resource &apos;P02/src/textSrot.c&apos;" element1="/P02/src/textSrot.c" flags="7" id="org.eclipse.ltk.core.refactoring.delete.resources" resources="1" stamp="1588313307176"/>
</session>